MFM_Folder,MFM_Name,MFM_Cap
MFM_1_TP-1 MFM,TP-1 MFM,292.5
MFM_10_Anmol MFM-01,Anmol MFM-01,780.8
MFM_11_Anmol MFM-02,Anmol MFM-02,1024
MFM_12_AMD-2 MFM,AMD-2 MFM,754
MFM_13_Classic 1 MFM-01,Classic 1 MFM-01,455
MFM_14_Classic 1 MFM-02,Classic 1 MFM-02,312
MFM_33_New Classic 2 3 4 MFM 01,Classic 2 3 4 MFM-01,633.6
MFM_34_New Classic 2 3 4 MFM 02,Classic 2 3 4 MFM-2,672
MFM_37_New X12-MFM,X12- MFM,132
MFM_19_Amber MFM,Amber MFM,156
MFM_2_TP-2 MFM,TP-2 MFM,282.1
MFM_20_D&S MFM,D&S MFM,889.6
MFM_31_Wrapping MFM-02 New,Wrapping MFM-02,245.2
MFM_32_Looms MFM-01 New,Looms MFM-01,454.4
MFM_23_Gray godown MFM-03,Gray godown MFM-03,345.6
MFM_24_Inspection MFM-04,Inspection MFM-04,332.8
MFM_25_Yarn godown MFM-01,Yarn godown MFM-01,448.5
MFM_26_Warehouse MFM-01,Yarn Warehouse MFM-01,299
MFM_30_Library MFM-01,Library MFM-01,172.8
MFM_35_New Achal PV MFM-01,Achal PV MFM-01,806.4
MFM_3_Anklesh MFM,Anklesh MFM,1003.2
MFM_36_New Achal PV MFM-02,Achal PV MFM-02,998.4
MFM_4_SSR ACDB-01,SSR ACDB-01,513.5
MFM_5_SSR ACDB-02,SSR ACDB-02,1105
MFM_6_SSR ACDB-03,SSR ACDB-03,598
MFM_8_AMD-1 MFM,AMD-1 MFM,1256
